{
  "cmdLine": "'/cvmfs/atlas.cern.ch/repo/sw/software/24.0/Athena/24.0.24/InstallArea/x86_64-el9-gcc13-opt/share/Derivation_tf.py' '--inputEVNTFile=evgen.root' '--outputDAODFile=mcval.pool.root' '--formats' 'TRUTH1' '--CA'",
  "created": "2024-05-23T18:43:36",
  "executor": [
    {
      "asetup": null,
      "errMsg": "",
      "exeConfig": {
        "inputs": [
          "EVNT"
        ],
        "outputs": [
          "DAOD_TRUTH1"
        ],
        "script": "athena.py",
        "substep": "DerivationFramework"
      },
      "logfileReport": {
        "countSummary": {
          "CATASTROPHE": 0,
          "CRITICAL": 0,
          "DEBUG": 0,
          "ERROR": 0,
          "FATAL": 0,
          "IGNORED": 0,
          "INFO": 1048,
          "UNKNOWN": 44,
          "VERBOSE": 0,
          "WARNING": 13
        },
        "details": {}
      },
      "metaData": {},
      "name": "Derivation",
      "rc": 0,
      "statusOK": true,
      "validation": true
    }
  ],
  "exitAcronym": "OK",
  "exitCode": 0,
  "exitMsg": "OK",
  "exitMsgExtra": "",
  "files": {
    "input": [
      {
        "dataset": null,
        "nentries": 100,
        "subFiles": [
          {
            "file_guid": "3114B54B-9083-0148-A33F-9CADBB10D7A5",
            "name": "evgen.root"
          }
        ],
        "type": "EVNT"
      }
    ],
    "output": [
      {
        "argName": "TRUTH1",
        "dataset": null,
        "subFiles": [
          {
            "file_guid": "3BBBCEC0-29C7-2D4D-B330-DB37CA2325CF",
            "file_size": 4624280,
            "name": "DAOD_TRUTH1.mcval.pool.root",
            "nentries": 100
          }
        ],
        "type": "AOD"
      }
    ]
  },
  "name": "Derivation_tf",
  "reportVersion": "2.1.2",
  "resource": {
    "executor": {
      "Derivation": {
        "cpuTime": 60.22,
        "memory": {
          "Avg": {
            "nprocs": 3.0,
            "nthreads": 3.0,
            "pss": 753436.0,
            "rchar": 65329420.0,
            "read_bytes": 0.0,
            "rss": 885102.0,
            "rx_bytes": 144698855.0,
            "rx_packets": 61300.0,
            "swap": 0.0,
            "tx_bytes": 7746188.0,
            "tx_packets": 46474.0,
            "vmem": 1098008.0,
            "wchar": 3857722.0,
            "write_bytes": 13003.0
          },
          "HW": {
            "cpu": {
              "CPUs": 10,
              "CoresPerSocket": 1,
              "ModelName": "Intel Xeon Processor (Cascadelake)",
              "Sockets": 10,
              "ThreadsPerCore": 1
            },
            "mem": {
              "MemTotal": 29807720
            }
          },
          "Max": {
            "nprocs": 3,
            "nthreads": 3,
            "pss": 1247335,
            "rchar": 41157535,
            "read_bytes": 0,
            "rss": 1440380,
            "rx_bytes": 91160279,
            "rx_packets": 38619,
            "stime": 2,
            "swap": 0,
            "tx_bytes": 4880099,
            "tx_packets": 29279,
            "utime": 45,
            "vmem": 1915428,
            "wchar": 2430365,
            "write_bytes": 8192,
            "wtime": 63
          },
          "prmon": {
            "Version": "3.0.1"
          }
        },
        "nevents": 100,
        "postExe": {
          "cpuTime": 0.15,
          "wallTime": 1.03
        },
        "preExe": {
          "cpuTime": 0.0,
          "wallTime": 0.53
        },
        "total": {
          "cpuTime": 60.37,
          "wallTime": 78.18
        },
        "validation": {
          "cpuTime": 0.0,
          "wallTime": 0.31
        },
        "wallTime": 76.31
      }
    },
    "machine": {
      "cpu_family": "6",
      "linux_distribution": [
        "AlmaLinux",
        "9.3",
        "Shamrock Pampas Cat"
      ],
      "model": "85",
      "model_name": "Intel Xeon Processor (Cascadelake)",
      "node": "lxplus993.cern.ch",
      "platform": "Linux-5.14.0-427.16.1.el9_4.x86_64-x86_64-with-glibc2.34"
    },
    "transform": {
      "cpuEfficiency": 0.7398,
      "cpuPWEfficiency": 0.7398,
      "cpuTime": 3.22,
      "cpuTimeTotal": 60.37,
      "externalCpuTime": 0.53,
      "inFileValidation": {
        "cpuTime": 0.33,
        "wallTime": 3.82
      },
      "outFileValidation": {
        "cpuTime": 0.0,
        "wallTime": 0.6
      },
      "processedEvents": 100,
      "reportGeneration": {
        "cpuTime": 0.05,
        "wallTime": 3.14
      },
      "transformSetup": {
        "cpuTime": 0.0,
        "wallTime": 0.01
      },
      "trfPredata": null,
      "wallTime": 85.75
    }
  }
}